{
    "name":"Marvin Gardens",
    "description":"",
    "property":{
        "property_type":"street",
        "group": 5,
        "value":280,
        "house_value":150,
        "rent":[24,120,360,850,1025,1200],
        "mortgage_value": 140
    }
}