{
    "name":"Mediterranean Avenue",
    "description":"",
    "property":{
        "property_type":"street",
        "group": 0,
        "value": 60,
        "house_value": 50,
        "rent":[2,10,30,90,160,250],
        "mortgage_value": 30
    }
}