{
    "name":"New York Avenue",
    "description":"",
    "property":{
        "property_type":"street",
        "group": 3,
        "value":200,
        "house_value":100,
        "rent":[16,80,220,600,800,1000],
        "mortgage_value": 100
    }
}