{
    "name":"Tennessee Avenue",
    "description":"",
    "property":{
        "property_type":"street",
        "group": 3,
        "value":180,
        "house_value":100,
        "rent":[14,70,200,550,750,950],
        "mortgage_value": 90
    }
}